---
source: xand_network_generator/src/contracts/network/metadata/xand_entity_set_summary.rs
assertion_line: 326
expression: metadata
---
address: 5FqS4AH26QHs4brZXuafAxnkMkv1Yq4NE5PHLQCfM8PTHYJE
xand-api-details:
  xand-api-url: "http://localhost:10044/"
  auth: ~
banks:
  - bank: mcb
    account:
      routing_number: 999999
      account_number: 494949
encryption-public-key: DaGkwZkj9zbSeMW9wyxZuS7AcPYS2u4FsHshf1dZLLJq
trust-api-url: "http://localhost:10045/"

